…
## Problem 3

``` r
#devtools::install_github("p8105/p8105.datasets")
library(p8105.datasets)

data(brfss_smart2010)

brfss_smart2010
```

    ## # A tibble: 134,203 x 23
    ##     Year Locationabbr Locationdesc Class Topic Question Response
    ##    <int> <chr>        <chr>        <chr> <chr> <chr>    <chr>   
    ##  1  2010 AL           AL - Jeffer~ Heal~ Over~ How is ~ Excelle~
    ##  2  2010 AL           AL - Jeffer~ Heal~ Over~ How is ~ Very go~
    ##  3  2010 AL           AL - Jeffer~ Heal~ Over~ How is ~ Good    
    ##  4  2010 AL           AL - Jeffer~ Heal~ Over~ How is ~ Fair    
    ##  5  2010 AL           AL - Jeffer~ Heal~ Over~ How is ~ Poor    
    ##  6  2010 AL           AL - Jeffer~ Heal~ Fair~ Health ~ Good or~
    ##  7  2010 AL           AL - Jeffer~ Heal~ Fair~ Health ~ Fair or~
    ##  8  2010 AL           AL - Jeffer~ Heal~ Heal~ Do you ~ Yes     
    ##  9  2010 AL           AL - Jeffer~ Heal~ Heal~ Do you ~ No      
    ## 10  2010 AL           AL - Jeffer~ Heal~ Unde~ Adults ~ Yes     
    ## # ... with 134,193 more rows, and 16 more variables: Sample_Size <int>,
    ## #   Data_value <dbl>, Confidence_limit_Low <dbl>,
    ## #   Confidence_limit_High <dbl>, Display_order <int>,
    ## #   Data_value_unit <chr>, Data_value_type <chr>,
    ## #   Data_Value_Footnote_Symbol <chr>, Data_Value_Footnote <chr>,
    ## #   DataSource <chr>, ClassId <chr>, TopicId <chr>, LocationID <chr>,
    ## #   QuestionID <chr>, RESPID <chr>, GeoLocation <chr>
…
